simulation/qsim/LogicCircuit.msim.vcd
$comment
	File created using the following command:
		vcd file LogicCircuit.msim.vcd -direction
$end
$date
	Tue Oct 15 17:25:10 2024
$end
$version
	ModelSim Version 2020.1
$end
$timescale
	1ps
$end

$scope module week6_ex2_bdf_vlg_vec_tst $end
$var reg 1 ! clk $end
$var reg 12 " keypad [11:0] $end
$var reg 1 # reset $end
$var wire 1 $ Dout [3] $end
$var wire 1 % Dout [2] $end
$var wire 1 & Dout [1] $end
$var wire 1 ' Dout [0] $end

$scope module i1 $end
$var wire 1 ( gnd $end
$var wire 1 ) vcc $end
$var wire 1 * unknown $end
$var tri1 1 + devclrn $end
$var tri1 1 , devpor $end
$var tri1 1 - devoe $end
$var wire 1 . ~QUARTUS_CREATED_GND~I_combout $end
$var wire 1 / reset~input_o $end
$var wire 1 0 clk~input_o $end
$var wire 1 1 clk~inputCLKENA0_outclk $end
$var wire 1 2 keypad[6]~input_o $end
$var wire 1 3 keypad[0]~input_o $end
$var wire 1 4 keypad[4]~input_o $end
$var wire 1 5 keypad[2]~input_o $end
$var wire 1 6 keypad[8]~input_o $end
$var wire 1 7 inst|inst12121~1_combout $end
$var wire 1 8 keypad[9]~input_o $end
$var wire 1 9 keypad[1]~input_o $end
$var wire 1 : keypad[3]~input_o $end
$var wire 1 ; keypad[5]~input_o $end
$var wire 1 < keypad[7]~input_o $end
$var wire 1 = inst|inst12121~0_combout $end
$var wire 1 > keypad[10]~input_o $end
$var wire 1 ? inst2|inst7~0_combout $end
$var wire 1 @ inst2|inst3~combout $end
$var wire 1 A inst2|inst8~q $end
$var wire 1 B keypad[11]~input_o $end
$var wire 1 C inst5|Selector3~0_combout $end
$var wire 1 D inst5|fstate.state4~q $end
$var wire 1 E inst5|Selector4~0_combout $end
$var wire 1 F inst5|fstate.state5~q $end
$var wire 1 G inst5|ce~0_combout $end
$var wire 1 H inst2|inst7~q $end
$var wire 1 I inst5|reg_fstate.state1~0_combout $end
$var wire 1 J inst5|fstate.state1~q $end
$var wire 1 K inst5|Selector1~0_combout $end
$var wire 1 L inst5|Selector1~1_combout $end
$var wire 1 M inst5|fstate.state2~q $end
$var wire 1 N inst5|reg_fstate.state3~0_combout $end
$var wire 1 O inst5|fstate.state3~q $end
$var wire 1 P inst|inst7~0_combout $end
$var wire 1 Q inst3|inst22~combout $end
$var wire 1 R inst3|inst4|inst4~q $end
$var wire 1 S inst3|inst23~combout $end
$var wire 1 T inst3|inst|inst4~q $end
$var wire 1 U inst3|inst31~0_combout $end
$var wire 1 V inst3|inst5|inst4~q $end
$var wire 1 W inst3|inst21~combout $end
$var wire 1 X inst3|inst6|inst4~q $end
$var wire 1 Y inst3|inst20|6~0_combout $end
$var wire 1 Z inst3|inst20|6~1_combout $end
$var wire 1 [ inst|inst6~0_combout $end
$var wire 1 \ inst3|inst5|inst3~q $end
$var wire 1 ] inst3|inst|inst3~q $end
$var wire 1 ^ inst3|inst6|inst3~q $end
$var wire 1 _ inst3|inst4|inst3~q $end
$var wire 1 ` inst3|inst19|6~0_combout $end
$var wire 1 a inst3|inst19|6~1_combout $end
$var wire 1 b inst|inst5~0_combout $end
$var wire 1 c inst3|inst4|inst2~q $end
$var wire 1 d inst3|inst6|inst2~q $end
$var wire 1 e inst3|inst|inst2~feeder_combout $end
$var wire 1 f inst3|inst|inst2~q $end
$var wire 1 g inst3|inst5|inst2~q $end
$var wire 1 h inst3|inst18|6~0_combout $end
$var wire 1 i inst3|inst18|6~1_combout $end
$var wire 1 j inst|inst4~0_combout $end
$var wire 1 k inst3|inst4|inst~q $end
$var wire 1 l inst3|inst|inst~q $end
$var wire 1 m inst3|inst5|inst~q $end
$var wire 1 n inst3|inst6|inst~q $end
$var wire 1 o inst3|inst17|6~0_combout $end
$var wire 1 p inst3|inst17|6~1_combout $end
$upscope $end
$upscope $end
$enddefinitions $end
#0
$dumpvars
0!
b0 "
1#
0'
0&
0%
0$
0(
1)
x*
1+
1,
1-
0.
1/
00
01
02
03
04
05
06
17
08
09
0:
0;
0<
1=
0>
1?
0@
0A
0B
0C
0D
0E
0F
0G
0H
0I
0J
1K
0L
0M
0N
0O
0P
0Q
0R
0S
0T
0U
0V
0W
0X
0Y
0Z
0[
0\
0]
0^
0_
0`
0a
0b
0c
0d
0e
0f
0g
0h
0i
0j
0k
0l
0m
0n
0o
0p
$end
#20000
1!
10
11
#40000
b10000000000 "
0!
1>
00
01
0K
1I
1L
#60000
1!
10
11
1M
1J
1K
#80000
0!
00
01
#100000
b0 "
1!
0>
10
11
#120000
b100000000 "
0!
16
00
01
1P
07
1N
0L
#140000
1!
10
11
1O
0M
1S
0K
1G
0N
1L
#160000
0!
00
01
#180000
b0 "
1!
06
10
11
0P
17
1T
0O
1M
1H
0S
1K
0G
1@
0?
#200000
0!
00
01
#220000
1!
10
11
#240000
b1000000 "
0!
12
00
01
1b
1[
07
1N
0L
1e
#260000
1!
10
11
1O
0M
1Q
0K
1G
0N
1L
#280000
0!
00
01
#300000
b0 "
1!
02
10
11
0b
0[
17
0e
1c
1_
0O
1M
0H
1A
0Q
1K
0G
1?
#320000
b100000 "
0!
1;
00
01
1j
1[
0=
1N
0L
#340000
1!
10
11
1O
0M
1W
0K
1G
0N
1L
#360000
0!
00
01
#380000
b0 "
1!
0;
10
11
0j
0[
1=
1n
1^
0O
1M
1H
0W
1K
0G
0@
0?
#400000
b10000000 "
0!
1<
00
01
1j
1b
1[
0=
1N
0L
1e
#420000
1!
10
11
1O
0M
1U
1G
0N
1C
#440000
0!
00
01
#460000
b0 "
1!
0<
10
11
0j
0b
0[
1=
0e
1m
1g
1\
0O
0H
1D
0A
1Y
0U
0G
1?
1Z
1$
#480000
0!
00
01
#500000
1!
10
11
#520000
b100000000000 "
0!
1B
00
01
1E
0C
#540000
1!
10
11
1F
0D
1G
#560000
0!
00
01
#580000
b0 "
1!
0B
10
11
1H
1h
1`
0Y
1@
0?
0Z
1a
1i
1&
1%
0$
#600000
0!
00
01
#620000
1!
10
11
0H
1A
1o
0h
1?
0i
1p
1'
0&
#640000
0!
00
01
#660000
1!
10
11
1H
1h
0I
0E
0@
0?
1i
1&
#680000
0!
00
01
#700000
1!
10
11
0J
0H
0F
0A
0o
0h
0`
1Y
0G
1?
1Z
0a
0i
0p
0'
0&
0%
1$
#720000
0!
00
01
#740000
1!
10
11
#760000
0!
00
01
#780000
1!
10
11
#800000
0!
00
01
#820000
1!
10
11
#840000
0!
00
01
#860000
1!
10
11
#880000
0!
00
01
#900000
1!
10
11
#920000
0!
00
01
#940000
1!
10
11
#960000
0!
00
01
#980000
1!
10
11
