simulation/qsim/LogicCircuit.msim.vcd
$comment
	File created using the following command:
		vcd file LogicCircuit.msim.vcd -direction
$end
$date
	Wed Oct 30 16:14:59 2024
$end
$version
	ModelSim Version 2020.1
$end
$timescale
	1ps
$end

$scope module nine_week_2_vlg_vec_tst $end
$var reg 1 ! clk $end
$var reg 1 " Din0 $end
$var reg 1 # Din1 $end
$var reg 1 $ Din2 $end
$var reg 1 % Din3 $end
$var reg 1 & Din4 $end
$var reg 1 ' Din5 $end
$var reg 1 ( Din6 $end
$var reg 1 ) Din7 $end
$var reg 1 * Din8 $end
$var reg 1 + Din9 $end
$var reg 1 , rst $end
$var wire 1 - a $end
$var wire 1 . b $end
$var wire 1 / c $end
$var wire 1 0 com1 $end
$var wire 1 1 com2 $end
$var wire 1 2 com3 $end
$var wire 1 3 com4 $end
$var wire 1 4 com5 $end
$var wire 1 5 com6 $end
$var wire 1 6 com7 $end
$var wire 1 7 com8 $end
$var wire 1 8 d $end
$var wire 1 9 e $end
$var wire 1 : f $end
$var wire 1 ; g $end
$var wire 1 < m_out [3] $end
$var wire 1 = m_out [2] $end
$var wire 1 > m_out [1] $end
$var wire 1 ? m_out [0] $end
$var wire 1 @ out [3] $end
$var wire 1 A out [2] $end
$var wire 1 B out [1] $end
$var wire 1 C out [0] $end

$scope module i1 $end
$var wire 1 D gnd $end
$var wire 1 E vcc $end
$var wire 1 F unknown $end
$var tri1 1 G devclrn $end
$var tri1 1 H devpor $end
$var tri1 1 I devoe $end
$var wire 1 J ~QUARTUS_CREATED_GND~I_combout $end
$var wire 1 K clk~input_o $end
$var wire 1 L clk~inputCLKENA0_outclk $end
$var wire 1 M Din3~input_o $end
$var wire 1 N Din5~input_o $end
$var wire 1 O Din9~input_o $end
$var wire 1 P Din1~input_o $end
$var wire 1 Q Din7~input_o $end
$var wire 1 R Din0~input_o $end
$var wire 1 S inst|inst11~0_combout $end
$var wire 1 T rst~input_o $end
$var wire 1 U Din6~input_o $end
$var wire 1 V inst21~0_combout $end
$var wire 1 W Din4~input_o $end
$var wire 1 X Din2~input_o $end
$var wire 1 Y Din8~input_o $end
$var wire 1 Z inst21~combout $end
$var wire 1 [ inst2|inst2~feeder_combout $end
$var wire 1 \ inst2|inst2~q $end
$var wire 1 ] inst2|inst3~feeder_combout $end
$var wire 1 ^ inst2|inst3~q $end
$var wire 1 _ inst2|inst~combout $end
$var wire 1 ` inst24|inst~q $end
$var wire 1 a inst25|inst~q $end
$var wire 1 b inst26|inst~q $end
$var wire 1 c inst9|inst1~0_combout $end
$var wire 1 d inst9|inst1~q $end
$var wire 1 e inst27|inst~q $end
$var wire 1 f inst9|inst1~DUPLICATE_q $end
$var wire 1 g inst9|inst~0_combout $end
$var wire 1 h inst9|inst~q $end
$var wire 1 i inst44|inst9~0_combout $end
$var wire 1 j inst|inst13~0_combout $end
$var wire 1 k inst24|inst2~q $end
$var wire 1 l inst25|inst2~q $end
$var wire 1 m inst26|inst2~q $end
$var wire 1 n inst27|inst2~q $end
$var wire 1 o inst44|inst11~0_combout $end
$var wire 1 p inst|inst12~0_combout $end
$var wire 1 q inst24|inst1~feeder_combout $end
$var wire 1 r inst24|inst1~q $end
$var wire 1 s inst25|inst1~q $end
$var wire 1 t inst26|inst1~q $end
$var wire 1 u inst27|inst1~q $end
$var wire 1 v inst44|inst10~0_combout $end
$var wire 1 w inst|inst14~0_combout $end
$var wire 1 x inst24|inst3~q $end
$var wire 1 y inst25|inst3~feeder_combout $end
$var wire 1 z inst25|inst3~q $end
$var wire 1 { inst26|inst3~feeder_combout $end
$var wire 1 | inst26|inst3~q $end
$var wire 1 } inst27|inst3~q $end
$var wire 1 ~ inst44|inst12~0_combout $end
$var wire 1 !! inst23|inst21~combout $end
$var wire 1 "! inst23|inst23~combout $end
$var wire 1 #! inst23|inst25~combout $end
$var wire 1 $! inst23|inst28~0_combout $end
$var wire 1 %! inst23|inst28~1_combout $end
$var wire 1 &! inst23|inst32~0_combout $end
$var wire 1 '! inst23|inst35~0_combout $end
$var wire 1 (! inst32~combout $end
$var wire 1 )! inst34~0_combout $end
$var wire 1 *! inst34~1_combout $end
$var wire 1 +! inst34~2_combout $end
$upscope $end
$upscope $end
$enddefinitions $end
#0
$dumpvars
0!
0"
0#
0$
0%
0&
0'
0(
0)
0*
0+
0,
1-
1.
1/
00
11
12
13
14
15
16
17
18
19
1:
0;
0?
0>
0=
0<
0C
0B
0A
0@
0D
1E
xF
1G
1H
1I
0J
0K
0L
0M
0N
0O
0P
0Q
0R
0S
0T
0U
1V
0W
0X
0Y
0Z
0[
0\
0]
0^
0_
0`
0a
0b
1c
0d
0e
0f
0g
0h
0i
0j
0k
0l
0m
0n
0o
0p
0q
0r
0s
0t
0u
0v
0w
0x
0y
0z
0{
0|
0}
0~
1!!
1"!
1#!
1$!
1%!
1&!
0'!
0(!
0)!
0*!
0+!
$end
#20000
1!
1K
1L
1f
1d
1)!
1(!
0c
1g
10
01
#40000
0!
0K
0L
#60000
1!
1K
1L
1h
0f
0d
1*!
0)!
1c
11
02
#80000
0!
0K
0L
#90000
1(
1U
1p
1j
1Z
1[
1q
#100000
1!
1K
1L
1f
1d
1\
1_
1+!
0*!
1]
0c
0g
12
03
#120000
0!
0K
0L
#140000
1!
1K
1L
0h
0f
0d
1^
1r
1k
1A
1B
0_
0+!
0(!
1v
1o
1c
1=
1>
00
13
1'!
0"!
0.
1;
#150000
0(
0U
0p
0j
0Z
0[
0q
#160000
0!
0K
0L
#180000
1!
1K
1L
1f
1d
0\
1)!
0]
1(!
0v
0o
0c
1g
0=
0>
10
01
0'!
1"!
1.
0;
#200000
0!
0K
0L
#210000
1%
1M
1p
0V
1S
1Z
1q
1[
#220000
1!
1K
1L
1h
0f
0d
0^
1\
1_
1*!
0)!
1]
1c
11
02
#240000
0!
0K
0L
#260000
1!
1K
1L
1s
1l
1f
1d
1^
0k
1`
1C
0A
0_
1+!
0*!
0c
0g
12
03
#270000
0%
0M
0p
1V
0S
0Z
0q
0[
#280000
0!
0K
0L
#290000
1"
1R
1Z
1[
#300000
1!
1K
1L
0h
0f
0d
0+!
0(!
1v
1i
1c
1?
1>
00
13
1'!
0&!
0%!
09
0:
1;
#310000
0"
0R
0Z
0[
#320000
0!
0K
0L
#340000
1!
1K
1L
1f
1d
0\
1)!
0]
1(!
1o
0i
0c
1g
0?
1=
10
01
1&!
1%!
0"!
0.
19
1:
#360000
0!
0K
0L
#370000
1*
1Y
1w
1Z
1[
#380000
1!
1K
1L
1h
0f
0d
0^
1\
1_
1*!
0)!
1]
0v
0o
1c
0=
0>
11
02
0'!
1"!
1.
0;
#400000
0!
0K
0L
#420000
1!
1K
1L
1t
1m
0l
1f
1d
1a
1^
1x
0r
0`
0C
0B
1@
0_
1+!
0*!
0c
0g
1y
12
03
#430000
0*
0Y
0w
0Z
0[
#440000
0!
0K
0L
#460000
1!
1K
1L
0h
0f
0d
0\
0+!
0]
0(!
1~
1c
1<
00
13
1'!
1;
#480000
0!
0K
0L
#500000
1!
1K
1L
1f
1d
0^
1)!
1(!
0~
1v
1i
0c
1g
1?
1>
0<
10
01
0&!
0%!
09
0:
#520000
0!
0K
0L
#540000
1!
1K
1L
1h
0f
0d
1*!
0)!
1o
0i
1c
0?
1=
11
02
1&!
1%!
0"!
0.
19
1:
#560000
0!
0K
0L
#580000
1!
1K
1L
1f
1d
1+!
0*!
0v
0o
0c
0g
0=
0>
12
03
0'!
1"!
1.
0;
#600000
0!
0K
0L
#620000
1!
1K
1L
0h
0f
0d
0+!
0(!
1~
1c
1<
00
13
1'!
1;
#640000
0!
0K
0L
#660000
1!
1K
1L
1f
1d
1)!
1(!
0~
1v
1i
0c
1g
1?
1>
0<
10
01
0&!
0%!
09
0:
#680000
0!
0K
0L
#700000
1!
1K
1L
1h
0f
0d
1*!
0)!
1o
0i
1c
0?
1=
11
02
1&!
1%!
0"!
0.
19
1:
#720000
0!
0K
0L
#740000
1!
1K
1L
1f
1d
1+!
0*!
0v
0o
0c
0g
0=
0>
12
03
0'!
1"!
1.
0;
#760000
0!
0K
0L
#780000
1!
1K
1L
0h
0f
0d
0+!
0(!
1~
1c
1<
00
13
1'!
1;
#800000
0!
0K
0L
#820000
1!
1K
1L
1f
1d
1)!
1(!
0~
1v
1i
0c
1g
1?
1>
0<
10
01
0&!
0%!
09
0:
#840000
0!
0K
0L
#860000
1!
1K
1L
1h
0f
0d
1*!
0)!
1o
0i
1c
0?
1=
11
02
1&!
1%!
0"!
0.
19
1:
#880000
0!
0K
0L
#900000
1!
1K
1L
1f
1d
1+!
0*!
0v
0o
0c
0g
0=
0>
12
03
0'!
1"!
1.
0;
#920000
0!
0K
0L
#940000
1!
1K
1L
0h
0f
0d
0+!
0(!
1~
1c
1<
00
13
1'!
1;
#960000
0!
0K
0L
#980000
1!
1K
1L
1f
1d
1)!
1(!
0~
1v
1i
0c
1g
1?
1>
0<
10
01
0&!
0%!
09
0:
