simulation/qsim/LogicCircuit.msim.vcd
$comment
	File created using the following command:
		vcd file LogicCircuit.msim.vcd -direction
$end
$date
	Tue Sep 24 19:37:52 2024
$end
$version
	ModelSim Version 2020.1
$end
$timescale
	1ps
$end

$scope module week3_ex3_vlg_vec_tst $end
$var reg 1 ! A0 $end
$var reg 1 " A1 $end
$var reg 1 # A2 $end
$var reg 1 $ A3 $end
$var reg 1 % B0 $end
$var reg 1 & B1 $end
$var reg 1 ' B2 $end
$var reg 1 ( B3 $end
$var wire 1 ) EQ $end
$var wire 1 * GT $end
$var wire 1 + LT $end

$scope module i1 $end
$var wire 1 , gnd $end
$var wire 1 - vcc $end
$var wire 1 . unknown $end
$var tri1 1 / devclrn $end
$var tri1 1 0 devpor $end
$var tri1 1 1 devoe $end
$var wire 1 2 ~QUARTUS_CREATED_GND~I_combout $end
$var wire 1 3 A3~input_o $end
$var wire 1 4 B2~input_o $end
$var wire 1 5 A1~input_o $end
$var wire 1 6 A0~input_o $end
$var wire 1 7 B1~input_o $end
$var wire 1 8 B0~input_o $end
$var wire 1 9 inst2~0_combout $end
$var wire 1 : A2~input_o $end
$var wire 1 ; B3~input_o $end
$var wire 1 < inst2~1_combout $end
$var wire 1 = inst5~0_combout $end
$var wire 1 > inst4~combout $end
$var wire 1 ? inst5~1_combout $end
$var wire 1 @ inst5~2_combout $end
$upscope $end
$upscope $end
$enddefinitions $end
#0
$dumpvars
1!
1"
0#
0$
0%
1&
1'
1(
0)
0*
1+
0,
1-
x.
1/
10
11
02
03
14
15
16
17
08
09
0:
1;
1<
0=
1>
1?
0@
$end
#5000
0!
1$
06
13
0?
#10000
0"
1#
1%
0&
0$
05
1:
18
07
03
19
#15000
1"
0#
15
0:
1?
09
#20000
1$
0"
13
05
0?
19
#25000
1&
1#
0$
17
1:
03
#30000
0'
0(
0%
0#
1$
04
0;
08
0:
13
1@
0<
0+
1*
#35000
1'
1(
1#
14
1;
1:
1=
0@
1<
1+
0*
#40000
1!
1%
0'
0(
0#
16
18
04
0;
0:
0=
1@
0<
0+
1*
#45000
0$
0!
0%
03
06
08
1=
0@
1<
1+
0*
#50000
1"
0&
1'
1(
1#
15
07
14
1;
1:
0=
1?
09
#55000
0#
0:
#60000
1$
0"
0'
0(
1#
13
05
04
0;
1:
0?
1@
0<
0+
1*
#65000
1!
1&
1'
1(
0#
16
17
14
1;
0:
19
0@
1<
1+
0*
#70000
1%
0$
0!
0'
0(
18
03
06
04
0;
1=
#75000
0%
1$
1!
1'
1(
08
13
16
14
1;
0=
#80000
1"
1#
1%
0$
15
1:
18
03
09
#85000
0&
0"
0#
0%
1$
07
05
0:
08
13
1?
#90000
0'
0(
1#
1%
04
0;
1:
18
0?
1@
0<
0+
1*
#95000
1&
1"
0#
17
15
0:
#100000
0$
1'
1(
0%
0&
0"
1#
03
14
1;
08
07
05
1:
1?
0@
1<
1+
0*
#105000
0!
1$
0'
0(
1&
0#
06
13
04
0;
17
0:
0?
19
1@
0<
0+
1*
#110000
1%
0$
0&
1#
18
03
07
1:
#115000
1"
1'
1(
1$
1&
0#
15
14
1;
13
17
0:
0@
1<
1+
0*
#120000
0$
03
#125000
0%
0&
1#
08
07
1:
1?
09
#130000
1!
1$
1&
16
13
17
1=
1@
0<
0+
1*
#135000
1%
0$
0&
18
03
07
0=
0@
1<
1+
0*
#140000
0"
0'
0(
0#
0!
0%
1$
1&
05
04
0;
0:
06
08
13
17
0?
19
1@
0<
0+
1*
#145000
1"
1'
1(
1#
1!
1%
0$
0&
15
14
1;
1:
16
18
03
07
1?
09
0@
1<
1+
0*
#150000
0'
0(
0#
0%
1$
1&
04
0;
0:
08
13
17
1@
0<
0+
1*
#155000
1#
0&
1:
07
#160000
0!
1%
0$
06
18
03
#165000
1'
1(
1&
1!
1$
14
1;
17
16
13
1=
0?
0>
0@
0*
1)
#170000
0"
0&
05
07
#175000
0#
0'
0(
0$
0:
04
0;
03
#180000
0!
1&
1'
1(
1$
06
17
14
1;
13
0=
1>
19
1<
1+
0)
#185000
0%
1#
1!
08
1:
16
1=
#190000
0&
0'
0(
0!
07
04
0;
06
0>
09
0=
1@
0<
0+
1*
1)
1>
0)
#195000
1"
0$
1%
1&
15
03
18
17
19
#200000
1$
0&
13
07
1?
09
#205000
1'
1(
0"
14
1;
05
0?
19
1=
1<
0@
0*
1+
#210000
0#
0%
0$
1&
0:
08
03
17
0=
#215000
1"
1%
1$
15
18
13
#220000
1!
0'
0(
1#
0&
0"
0%
16
04
0;
1:
07
05
08
1?
09
1@
0<
0+
1*
#225000
0!
0#
1&
1%
06
0:
17
18
0?
19
#230000
1'
1(
1#
0&
0%
14
1;
1:
07
08
09
1=
0@
1<
1+
0*
0>
0<
0+
1)
#235000
0'
0(
0#
1&
04
0;
0:
17
1>
19
0=
1@
1*
0)
#240000
0$
1%
1'
1(
03
18
14
1;
0@
1<
1+
0*
#245000
1!
1#
1$
0%
0'
0(
16
1:
13
08
04
0;
1@
0<
0+
1*
#250000
0!
1%
1'
1(
06
18
14
1;
1=
0@
1<
1+
0*
#255000
1"
0#
1!
0%
0'
0(
15
0:
16
08
04
0;
0=
1?
09
1@
0<
0+
1*
#265000
0&
0$
1%
07
03
18
1=
#270000
0"
1#
0!
1$
0%
05
1:
06
13
08
0?
0>
0=
1)
1>
0)
#275000
1'
1(
1&
1"
14
1;
17
15
1=
0@
0*
0>
1)
#280000
1!
0$
1%
0&
16
03
18
07
1?
1>
0=
1<
1+
0)
#285000
0"
1$
05
13
1=
0?
1@
0<
0+
1*
0>
0@
0*
1)
#290000
0'
0(
1"
04
0;
15
1?
1>
0=
1@
1*
0)
#295000
0!
1&
06
17
0?
19
#300000
0#
0%
0$
1!
0:
08
03
16
1?
09
1=
0@
1<
1+
0*
0<
1@
1*
0+
#305000
0"
0&
1$
05
07
13
0=
#310000
1#
0!
1&
1:
06
17
0?
19
#315000
1%
0#
0&
18
0:
07
#320000
1'
1(
1#
14
1;
1:
1=
0@
1<
1+
0*
#325000
1"
0$
0'
0(
0#
15
03
04
0;
0:
1?
09
0<
1@
1*
0+
#330000
1!
1&
1#
16
17
1:
0=
0?
0>
1)
1>
0)
#335000
0%
1$
1'
1(
0!
0&
0#
08
13
14
1;
06
07
0:
1?
0@
1<
1+
0*
#340000
1%
0'
0(
1!
1&
18
04
0;
16
17
0?
1@
0<
0+
1*
#345000
0$
1#
1'
1(
0&
03
1:
14
1;
07
1?
0@
1<
1+
0*
#350000
0!
1$
0#
06
13
0:
#355000
0%
0'
0(
1&
1#
08
04
0;
17
1:
0?
1@
0<
0+
1*
#360000
1!
1%
1'
1(
16
18
14
1;
1=
0@
0*
0>
1)
#365000
0"
0$
0&
0#
0!
0'
0(
05
03
07
0:
06
04
0;
1>
19
0)
1<
1+
#370000
1"
1$
15
13
0=
1?
09
1@
0<
0+
1*
#375000
0%
1&
1#
1'
1(
08
17
1:
14
1;
1=
0?
0>
0@
0*
1)
#380000
1!
0"
0$
1%
0#
0'
0(
16
05
03
18
0:
04
0;
1>
19
0)
1<
1+
#385000
0!
1"
1$
06
15
13
0=
1@
0<
0+
1*
#390000
0%
1'
1(
0"
08
14
1;
05
0@
1<
1+
0*
#395000
1#
0$
1%
0'
0(
1:
03
18
04
0;
1@
0<
0+
1*
#400000
0&
1!
0#
0%
1'
1(
07
16
0:
08
14
1;
1?
09
0@
1<
1+
0*
#405000
1"
1&
1%
15
17
18
0?
#410000
1$
0'
0(
0"
0%
13
04
0;
05
08
19
1@
0<
0+
1*
#415000
1#
0&
0$
1"
1%
1:
07
03
15
18
1?
09
#420000
0!
1&
1$
0"
06
17
13
05
0?
19
#425000
0&
0$
1"
07
03
15
1?
09
#430000
0%
1&
1$
08
17
13
0?
#435000
0#
1!
0"
1%
0$
0:
16
05
18
03
1=
19
0@
0*
1<
1+
#440000
1'
1(
1#
1"
0%
14
1;
1:
15
08
1?
09
0=
#445000
0&
0!
0"
07
06
05
0?
#450000
0#
1%
1&
1"
0:
18
17
15
19
#455000
0'
0(
1#
0%
0&
04
0;
1:
08
07
1?
09
1@
0<
0+
1*
#460000
1$
0"
1'
1(
1%
13
05
14
1;
18
0?
19
1=
1<
0@
0*
1+
#465000
1!
0#
1&
0$
0'
0(
16
0:
17
03
04
0;
#470000
1"
0%
1$
15
08
13
0=
1?
09
1@
0<
0+
1*
#475000
0!
1'
1(
1%
06
14
1;
18
0?
19
0@
1<
1+
0*
#480000
1#
0$
1!
0'
0(
1:
03
16
04
0;
09
1@
0<
0+
1*
#485000
0"
0#
1$
0!
1'
1(
05
0:
13
06
14
1;
19
0@
1<
1+
0*
#490000
1"
1#
0'
0(
15
1:
04
0;
1@
0<
0+
1*
#495000
0&
0%
0"
07
08
05
09
#500000
0$
1!
0#
1%
03
16
0:
18
1=
0@
0*
0>
1)
#505000
1&
1#
17
1:
0=
1>
19
1@
1*
0)
#510000
1"
0&
15
07
1?
09
#515000
1'
1(
1$
0"
1&
14
1;
13
05
17
0?
19
1=
1<
0@
0*
1+
#520000
0%
0#
0'
0(
08
0:
04
0;
0=
1@
0<
0+
1*
#525000
0!
0$
1"
1#
1'
1(
06
03
15
1:
14
1;
09
0@
1<
1+
0*
#530000
0&
1!
0#
0'
0(
07
16
0:
04
0;
1=
1?
0<
0+
1@
1*
#535000
1%
0"
0!
1#
1'
1(
18
05
06
1:
14
1;
0=
0?
19
0@
1<
1+
0*
#540000
1$
1"
1!
0'
0(
13
15
16
04
0;
1?
09
1@
0<
0+
1*
#545000
0%
0$
0"
0!
1'
1(
08
03
05
06
14
1;
0?
0@
1<
1+
0*
#550000
1%
1!
18
16
#555000
0#
1$
0'
0(
0!
0:
13
04
0;
06
19
1@
0<
0+
1*
#560000
1"
0$
1!
15
03
16
1?
09
1=
0@
1<
1+
0*
0<
1@
1*
0+
#565000
1#
1'
1(
0"
0!
1:
14
1;
05
06
0?
19
0=
0@
1<
1+
0*
#570000
1$
0#
1!
13
0:
16
09
#575000
0%
0'
0(
1"
0$
1#
08
04
0;
15
03
1:
1?
1@
0<
0+
1*
#580000
1&
1%
1'
1(
0"
1$
0#
17
18
14
1;
05
13
0:
0?
19
0@
1<
1+
0*
#585000
0!
0$
1#
06
03
1:
#590000
1"
1!
0#
15
16
0:
09
#595000
1$
1#
13
1:
1=
0<
0+
0>
1)
#600000
0%
0"
0$
0#
08
05
03
0:
0=
1>
19
1<
1+
0)
#605000
0'
0(
1"
1$
1#
04
0;
15
13
1:
1?
09
1@
0<
0+
1*
#610000
0!
1%
0"
06
18
05
0?
19
#615000
1'
1(
0$
0%
1"
14
1;
03
08
15
09
0@
1<
1+
0*
#620000
0&
1%
0"
07
18
05
19
#625000
0#
0'
0(
1&
0%
0:
04
0;
17
08
1=
#630000
1$
1"
0&
1%
13
15
07
18
1?
09
0=
1@
0<
0+
1*
#635000
1!
1#
1'
1(
0"
0%
16
1:
14
1;
05
08
1=
#640000
0$
1&
0!
0'
0(
1"
1%
03
17
06
04
0;
15
18
0?
19
0=
#645000
0#
1$
1!
0%
0:
13
16
08
1?
09
#650000
0&
1'
1(
0"
1#
0$
0!
1%
07
14
1;
05
1:
03
06
18
0?
19
0@
1<
1+
0*
#655000
0'
0(
1"
0#
04
0;
15
0:
1=
1?
09
0<
1@
1*
0+
#660000
1$
1!
0%
0"
1#
13
16
08
05
1:
0=
#665000
1'
1(
0$
14
1;
03
0@
1<
1+
0*
#670000
1%
0'
0(
1$
18
04
0;
13
0?
1@
0<
0+
1*
#675000
1&
1"
0%
0$
17
15
08
03
1?
#680000
0!
0&
1%
1$
06
07
18
13
#685000
0"
1!
0$
05
16
03
0?
#690000
1'
1(
1&
1"
0!
14
1;
17
15
06
19
0@
1<
1+
0*
#695000
0#
0%
0&
0"
1!
0:
08
07
05
16
1?
09
#700000
1$
0'
0(
1%
0!
13
04
0;
18
06
0?
19
1@
0<
0+
1*
#705000
1&
1'
1(
0%
1!
17
14
1;
08
16
0@
1<
1+
0*
#710000
1#
0$
0'
0(
1:
03
04
0;
1@
0<
0+
1*
#715000
0&
1%
0!
0#
1'
1(
07
18
06
0:
14
1;
0@
1<
1+
0*
#720000
1$
1&
0%
0'
0(
13
17
08
04
0;
1@
0<
0+
1*
#725000
1"
1!
1%
1'
1(
15
16
18
14
1;
09
0@
1<
1+
0*
#730000
0"
05
19
#735000
1#
0$
0'
0(
1"
1:
03
04
0;
15
09
1@
0<
0+
1*
#740000
0&
0#
1'
1(
0"
07
0:
14
1;
05
0@
1<
1+
0*
#745000
0'
0(
1"
04
0;
15
1?
1=
0<
0+
1@
1*
#750000
1&
1#
0"
17
1:
05
0?
19
0=
#755000
0!
0%
06
08
#760000
1$
0#
1%
13
0:
18
#765000
1!
0$
0%
16
03
08
1=
0@
1<
1+
0*
#770000
1'
1(
0&
1#
1$
14
1;
07
1:
13
1?
09
0<
1@
1*
0+
#775000
1"
0!
0$
15
06
03
0=
0@
1<
1+
0*
#780000
1&
0#
1$
17
0:
13
0?
#785000
0"
0$
05
03
19
#790000
0'
0(
1!
1$
04
0;
16
13
1@
0<
0+
1*
#795000
1%
1"
0!
18
15
06
#800000
1#
0$
1:
03
#805000
1'
1(
14
1;
0@
1<
1+
0*
#810000
0%
0"
1!
1$
08
05
16
13
1=
#815000
0&
0#
1%
0!
0$
07
0:
18
06
03
0=
#820000
0'
0(
1"
1&
0%
1!
04
0;
15
17
08
16
1?
09
1=
0<
1@
1*
0+
#825000
1'
1(
1%
14
1;
18
0?
0>
0=
0@
1<
1+
0*
1)
1>
0)
#830000
0"
0%
05
08
19
#835000
1#
0!
1%
1:
06
18
#840000
0&
0'
0(
1"
1!
0%
07
04
0;
15
16
08
1?
09
1@
0<
0+
1*
#845000
0#
0!
0:
06
1=
#850000
1$
1'
1(
0"
1%
1!
13
14
1;
05
18
16
0?
0>
0=
0@
1<
1+
0*
1)
1>
0)
#855000
0$
1"
0%
03
15
08
1?
#860000
1&
1#
0'
0(
1%
17
1:
04
0;
18
0?
1@
0<
0+
1*
#865000
0"
1'
1(
0%
05
14
1;
08
19
0@
1<
1+
0*
#870000
1$
0#
0'
0(
13
0:
04
0;
1@
0<
0+
1*
#875000
0!
0&
1%
1'
1(
06
07
18
14
1;
0@
1<
1+
0*
#880000
1!
0%
16
08
1?
09
#885000
1"
0$
1#
1&
0'
0(
0!
1%
15
03
1:
17
04
0;
06
18
0?
19
1@
0<
0+
1*
#890000
0"
0&
1'
1(
1!
0%
05
07
14
1;
16
08
1?
09
0@
1<
1+
0*
#895000
1$
0#
1"
1&
0'
0(
0!
1%
13
0:
15
17
04
0;
06
18
0?
19
1@
0<
0+
1*
#900000
1#
0&
1!
0%
1:
07
16
08
1?
09
#905000
0$
1&
0!
1%
03
17
06
18
0?
19
#910000
0"
1$
1!
05
13
16
#915000
1'
1(
1"
14
1;
15
09
1=
0@
1<
1+
0*
0>
0<
0+
1)
#920000
0#
0&
0%
0$
0!
0'
0(
0"
0:
07
08
03
06
04
0;
05
#925000
1&
1$
1!
17
13
16
1>
19
0=
1@
1*
0)
#930000
1'
1(
0$
14
1;
03
0@
1<
1+
0*
#935000
0&
0!
0'
0(
07
06
04
0;
1=
09
0>
0<
0+
1)
#940000
1"
1$
15
13
0=
1?
1>
1@
1*
0)
#945000
1%
1&
0$
18
17
03
1=
0?
19
1<
0@
0*
1+
#950000
1#
1!
0%
1$
1:
16
08
13
0=
1?
09
1@
0<
0+
1*
#955000
1'
1(
0#
0!
14
1;
0:
06
0?
0@
1<
1+
0*
#960000
0"
1%
1#
05
18
1:
1=
19
0<
0+
1<
1+
#965000
0&
0$
0'
0(
1"
0#
07
03
04
0;
15
0:
1?
09
0<
1@
1*
0+
#970000
1!
1&
1$
1'
1(
16
17
13
14
1;
0=
0?
0>
0@
1<
1+
0*
1)
1>
0)
#975000
1#
0!
0&
1:
06
07
1?
1=
0<
0+
1@
1*
#980000
0%
0$
0'
0(
0#
1!
08
03
04
0;
0:
16
#985000
0"
1$
1'
1(
05
13
14
1;
0=
0@
1<
1+
0*
#990000
1%
1#
0!
1"
18
1:
06
15
1=
1@
0<
0+
1*
#995000
1&
0'
0(
0%
0#
1!
17
04
0;
08
0:
16
0=
